{
    "agsiData": [
        {
            "dataSetID": "40b785d0-547c-41c5-9b36-3cd31126ecb0",
            "description": "Example data file",
            "codeDictionary": "https://gitlab.com/AGS-DFWG-Web/ASGi/agsCodeList.htm",
            "agsiDataParameterSet": [
                {
                    "parameterSetID": "MG",
                    "description": "Made Ground",
                    "agsiDataParameterValue": [
                        {
                            "codeID": "UWb",
                            "valueNumeric": 19
                        },
                        {
                            "codeID": "PHIpk",
                            "caseID": "LOWER",
                            "valueNumeric": 25
                        },
                        {
                            "codeID": "PHIpk",
                            "caseID": "UPPER",
                            "valueNumeric": 30
                        },
                        {
                            "codeID": "PHIcv",
                            "caseID": "LOWER",
                            "valueNumeric": 25
                        },
                        {
                            "codeID": "PHIcv",
                            "caseID": "UPPER",
                            "valueNumeric": 30
                        }
                    ]
                },
                {
                    "parameterSetID": "LC",
                    "description": "London Clay",
                    "agsiDataParameterValue": [
                        {
                            "codeID": "UWb",
                            "valueNumeric": 20
                        },
                        {
                            "codeID": "CU",
                            "caseID": "CHAR",
                            "valueProfileIndVarCodeID": "ELEV",
                            "valueProfileCoordinates": [
                                [
                                    6.0,
                                    110.0
                                ],
                                [
                                    -28.3,
                                    329.52
                                ]
                            ]
                        },
                        {
                            "codeID": "CU",
                            "caseID": "AVERAGE",
                            "valueProfileIndVarCodeID": "ELEV",
                            "valueProfileCoordinates": [
                                [
                                    6.0,
                                    130.0
                                ],
                                [
                                    -28.3,
                                    378.675
                                ]
                            ]
                        }
                    ]
                }
            ],
            "agsiDataCase": [
                {
                    "caseID": "LOWER",
                    "description": "Characteristic low value",
                    "remarks": "To be used when lower value is critical"
                },
                {
                    "caseID": "UPPER",
                    "description": "Characteristic high value",
                    "remarks": "To be used when upper value is critical"
                },
                {
                    "caseID": "CHAR",
                    "description": "Characteristic"
                },
                {
                    "caseID": "AVERAGE",
                    "description": "Average",
                    "remarks": "For LDSA pile design"
                }
            ],
            "agsiDataCode": [
                {
                    "codeID": "UWb",
                    "description": "Bulk unit weight",
                    "units": "kN/m3",
                    "isProjectSpecific": false
                },
                {
                    "codeID": "CU",
                    "description": "Undrained shear strength",
                    "units": "kN/m2",
                    "isProjectSpecific": false
                },
                {
                    "codeID": "PHIpk",
                    "description": "Peak effective angle of shearing resistance",
                    "units": "deg",
                    "isProjectSpecific": false
                },
                {
                    "codeID": "PHIcv",
                    "description": "Critical state effective angle of shearing resistance",
                    "units": "deg",
                    "isProjectSpecific": false
                },
                {
                    "codeID": "ELEV",
                    "description": "Elevation (reduced level)",
                    "units": "mOD",
                    "isProjectSpecific": false
                }
            ]
        }
    ]
}