{
    "agsiData": [
        {
            "dataSetID": "40b785d0-547c-41c5-9b36-3cd31126ecb0",
            "description": "Example data file",
            "codeDictionary": "https://gitlab.com/AGS-DFWG-Web/ASGi/agsCodeList.htm",
            "agsiDataParameterSet": [
                {
                    "parameterSetID": "MG",
                    "description": "Made Ground",
                    "agsiDataParameterValue": [
                        {
                            "codeID": "UWb",
                            "valueNumeric": 19
                        },
                        {
                            "codeID": "DRCOND",
                            "valueText": "DRAINED"
                        },
                        {
                            "codeID": "SPTN",
                            "valueNumeric": 10
                        },
                        {
                            "codeID": "PHIpk",
                            "caseID": "LOWER",
                            "valueNumeric": 25
                        },
                        {
                            "codeID": "PHIpk",
                            "caseID": "UPPER",
                            "valueNumeric": 30
                        },
                        {
                            "codeID": "PHIcv",
                            "caseID": "LOWER",
                            "valueNumeric": 25
                        },
                        {
                            "codeID": "PHIcv",
                            "caseID": "UPPER",
                            "valueNumeric": 30
                        },
                        {
                            "codeID": "Edv",
                            "valueNumeric": 10
                        },
                        {
                            "codeID": "Edh",
                            "valueNumeric": 10
                        }
                    ]
                },
                {
                    "parameterSetID": "BRK",
                    "description": "Brickearth",
                    "agsiDataParameterValue": [
                        {
                            "codeID": "UWb",
                            "valueNumeric": 20
                        },
                        {
                            "codeID": "DRCOND",
                            "valueText": "DRAINED"
                        },
                        {
                            "codeID": "SPTN",
                            "valueNumeric": 10
                        },
                        {
                            "codeID": "PHIpk",
                            "valueNumeric": 28
                        },
                        {
                            "codeID": "PHIcv",
                            "valueNumeric": 28
                        },
                        {
                            "codeID": "Edv",
                            "valueNumeric": 10
                        },
                        {
                            "codeID": "Edh",
                            "valueNumeric": 10
                        }
                    ]
                },
                {
                    "parameterSetID": "RTD",
                    "description": "River Terrace Deposits",
                    "agsiDataParameterValue": [
                        {
                            "codeID": "UWb",
                            "valueNumeric": 20
                        },
                        {
                            "codeID": "DRCOND",
                            "valueText": "DRAINED"
                        },
                        {
                            "codeID": "SPTN",
                            "valueNumeric": 30
                        },
                        {
                            "codeID": "PHIpk",
                            "valueNumeric": 39
                        },
                        {
                            "codeID": "PHIcv",
                            "valueNumeric": 35
                        },
                        {
                            "codeID": "Edv",
                            "valueNumeric": 60
                        },
                        {
                            "codeID": "Edh",
                            "valueNumeric": 60
                        }
                    ]
                },
                {
                    "parameterSetID": "BCI",
                    "description": "Buried Channel Infill",
                    "agsiDataParameterValue": [
                        {
                            "codeID": "UWb",
                            "valueNumeric": 19
                        },
                        {
                            "codeID": "DRCOND",
                            "valueText": "DRAINED"
                        },
                        {
                            "codeID": "SPTN",
                            "valueNumeric": 7
                        },
                        {
                            "codeID": "CU",
                            "valueNumeric": 35
                        },
                        {
                            "codeID": "PHIpk",
                            "valueNumeric": 30
                        },
                        {
                            "codeID": "PHIcv",
                            "valueNumeric": 25
                        },
                        {
                            "codeID": "Edv",
                            "valueNumeric": 15
                        },
                        {
                            "codeID": "Edh",
                            "valueNumeric": 15
                        }
                    ]
                },
                {
                    "parameterSetID": "LC",
                    "description": "London Clay",
                    "agsiDataParameterValue": [
                        {
                            "codeID": "UWb",
                            "valueNumeric": 20
                        },
                        {
                            "codeID": "DRCOND",
                            "valueText": "UNDRAINED"
                        },
                        {
                            "codeID": "SPTN",
                            "valueProfileIndVarCodeID": "ELEV",
                            "valueProfileCoordinates": [
                                [
                                    6.0,
                                    22.0
                                ],
                                [
                                    -28.3,
                                    65.904
                                ]
                            ]
                        },
                        {
                            "codeID": "CU",
                            "caseID": "CHAR",
                            "valueProfileIndVarCodeID": "ELEV",
                            "valueProfileCoordinates": [
                                [
                                    6.0,
                                    110.0
                                ],
                                [
                                    -28.3,
                                    329.52
                                ]
                            ]
                        },
                        {
                            "codeID": "CU",
                            "caseID": "AVERAGE",
                            "valueProfileIndVarCodeID": "ELEV",
                            "valueProfileCoordinates": [
                                [
                                    6.0,
                                    130.0
                                ],
                                [
                                    -28.3,
                                    378.675
                                ]
                            ]
                        },
                        {
                            "codeID": "Euh",
                            "caseID": "RETWALL",
                            "valueProfileIndVarCodeID": "ELEV",
                            "valueProfileCoordinates": [
                                [
                                    6.0,
                                    110.0
                                ],
                                [
                                    -28.3,
                                    329.52
                                ]
                            ]
                        },
                        {
                            "codeID": "Edh",
                            "caseID": "RETWALL",
                            "valueProfileIndVarCodeID": "ELEV",
                            "valueProfileCoordinates": [
                                [
                                    6.0,
                                    82.5
                                ],
                                [
                                    -28.3,
                                    247.14
                                ]
                            ]
                        },
                        {
                            "codeID": "Euh",
                            "caseID": "FDNGM",
                            "valueProfileIndVarCodeID": "ELEV",
                            "valueProfileCoordinates": [
                                [
                                    6.0,
                                    55.0
                                ],
                                [
                                    -28.3,
                                    164.76
                                ]
                            ]
                        },
                        {
                            "codeID": "Edh",
                            "caseID": "FDNGM",
                            "valueProfileIndVarCodeID": "ELEV",
                            "valueProfileCoordinates": [
                                [
                                    6.0,
                                    44.0
                                ],
                                [
                                    -28.3,
                                    131.808
                                ]
                            ]
                        },
                        {
                            "codeID": "Euv",
                            "caseID": "FDNGM",
                            "valueProfileIndVarCodeID": "ELEV",
                            "valueProfileCoordinates": [
                                [
                                    6.0,
                                    55.0
                                ],
                                [
                                    -28.3,
                                    164.76
                                ]
                            ]
                        },
                        {
                            "codeID": "Edv",
                            "caseID": "FDNGM",
                            "valueProfileIndVarCodeID": "ELEV",
                            "valueProfileCoordinates": [
                                [
                                    6.0,
                                    44.0
                                ],
                                [
                                    -28.3,
                                    131.808
                                ]
                            ]
                        }
                    ]
                },
                {
                    "parameterSetID": "LMG-COH",
                    "description": "Lambeth Group - Cohesive",
                    "agsiDataParameterValue": [
                        {
                            "codeID": "UWb",
                            "valueNumeric": 20
                        },
                        {
                            "codeID": "DRCOND",
                            "valueText": "UNDRAINED"
                        },
                        {
                            "codeID": "SPTN",
                            "valueNumeric": 100
                        },
                        {
                            "codeID": "CU",
                            "caseID": "CHAR",
                            "valueProfileIndVarCodeID": "ELEV",
                            "valueProfileCoordinates": [
                                [
                                    -28.3,
                                    329.52
                                ],
                                [
                                    -39.4,
                                    400.56
                                ]
                            ]
                        },
                        {
                            "codeID": "Euh",
                            "valueProfileIndVarCodeID": "ELEV",
                            "valueProfileCoordinates": [
                                [
                                    -28.3,
                                    164.76
                                ],
                                [
                                    -39.4,
                                    200.28
                                ]
                            ]
                        },
                        {
                            "codeID": "Edh",
                            "valueProfileIndVarCodeID": "ELEV",
                            "valueProfileCoordinates": [
                                [
                                    -28.3,
                                    131.808
                                ],
                                [
                                    -39.4,
                                    160.224
                                ]
                            ]
                        },
                        {
                            "codeID": "Euv",
                            "valueProfileIndVarCodeID": "ELEV",
                            "valueProfileCoordinates": [
                                [
                                    -28.3,
                                    164.76
                                ],
                                [
                                    -39.4,
                                    200.28
                                ]
                            ]
                        },
                        {
                            "codeID": "Edv",
                            "valueProfileIndVarCodeID": "ELEV",
                            "valueProfileCoordinates": [
                                [
                                    -28.3,
                                    131.808
                                ],
                                [
                                    -39.4,
                                    160.224
                                ]
                            ]
                        }
                    ]
                },
                {
                    "parameterSetID": "LMG-GRAN",
                    "description": "Lambeth Group - Granular",
                    "agsiDataParameterValue": [
                        {
                            "codeID": "UWb",
                            "valueNumeric": 20
                        },
                        {
                            "codeID": "DRCOND",
                            "valueText": "DRAINED"
                        },
                        {
                            "codeID": "SPTN",
                            "valueNumeric": 100
                        },
                        {
                            "codeID": "PHIpk",
                            "valueNumeric": 39
                        },
                        {
                            "codeID": "PHIcv",
                            "valueNumeric": 35
                        },
                        {
                            "codeID": "Edv",
                            "valueNumeric": 200
                        },
                        {
                            "codeID": "Edh",
                            "valueNumeric": 200
                        }
                    ]
                },
                {
                    "parameterSetID": "TS",
                    "description": "Thanet Sand Formation",
                    "agsiDataParameterValue": [
                        {
                            "codeID": "UWb",
                            "valueNumeric": 20
                        },
                        {
                            "codeID": "DRCOND"
                        },
                        {
                            "codeID": "PHIpk",
                            "valueNumeric": 39
                        },
                        {
                            "codeID": "PHIcv",
                            "valueNumeric": 35
                        },
                        {
                            "codeID": "Edv",
                            "valueNumeric": 500
                        },
                        {
                            "codeID": "Edh",
                            "valueNumeric": 500
                        }
                    ]
                }
            ],
            "agsiDataPropertySet": [
                {
                    "propertySetID": "MG",
                    "description": "Made Ground",
                    "agsiDataPropertyValue": [
                        {
                            "codeID": "SPTN",
                            "valueText": "No properties inlcuded yet"
                        }
                    ]
                },
                {
                    "propertySetID": "BRK",
                    "description": "Brickearth"
                },
                {
                    "propertySetID": "RTD",
                    "description": "River Terrace Deposits"
                },
                {
                    "propertySetID": "BCI",
                    "description": "Buried Channel Infill"
                },
                {
                    "propertySetID": "LC",
                    "description": "London Clay"
                },
                {
                    "propertySetID": "LMG-COH",
                    "description": "Lambeth Group - Cohesive"
                },
                {
                    "propertySetID": "LMG-GRAN",
                    "description": "Lambeth Group - Granular"
                },
                {
                    "propertySetID": "TS",
                    "description": "Thanet Sand Formation"
                }
            ],
            "agsiDataCase": [
                {
                    "caseID": "LOWER",
                    "description": "Characteristic low value",
                    "remarks": "To be used when lower value is critical"
                },
                {
                    "caseID": "UPPER",
                    "description": "Characteristic high value",
                    "remarks": "To be used when upper value is critical"
                },
                {
                    "caseID": "FDNGM",
                    "description": "For general foundation and ground movement analysis"
                },
                {
                    "caseID": "RETWALL",
                    "description": "For embedded retaining wall design only"
                },
                {
                    "caseID": "CHAR",
                    "description": "Characteristic"
                },
                {
                    "caseID": "AVERAGE",
                    "description": "Average",
                    "remarks": "For LDSA pile design"
                }
            ],
            "agsiDataCode": [
                {
                    "codeID": "UWb",
                    "description": "Bulk unit weight",
                    "units": "kN/m3",
                    "isProjectSpecific": false
                },
                {
                    "codeID": "DRCOND",
                    "description": "Soil drainage condition for short term analysis",
                    "isProjectSpecific": false,
                    "remarks": "DRAINED or UNDRAINED"
                },
                {
                    "codeID": "SPTN",
                    "description": "SPT N value",
                    "units": "Blows/300mm",
                    "isProjectSpecific": false
                },
                {
                    "codeID": "CU",
                    "description": "Undrained shear strength",
                    "units": "kN/m2",
                    "isProjectSpecific": false
                },
                {
                    "codeID": "PHIpk",
                    "description": "Peak effective angle of shearing resistance",
                    "units": "deg",
                    "isProjectSpecific": false
                },
                {
                    "codeID": "PHIcv",
                    "description": "Critical state effective angle of shearing resistance",
                    "units": "deg",
                    "isProjectSpecific": false
                },
                {
                    "codeID": "Euv",
                    "description": "Undrained vertical Young\u2019s modulus of elasticity",
                    "units": "MPa",
                    "isProjectSpecific": false
                },
                {
                    "codeID": "Euh",
                    "description": "Undrained horizontal Young\u2019s modulus of elasticity",
                    "units": "MPa",
                    "isProjectSpecific": false
                },
                {
                    "codeID": "Edv",
                    "description": "Drained vertical Young\u2019s modulus of elasticity",
                    "units": "MPa",
                    "isProjectSpecific": false
                },
                {
                    "codeID": "Edh",
                    "description": "Drained horizontal Young\u2019s modulus of elasticity",
                    "units": "MPa",
                    "isProjectSpecific": false
                },
                {
                    "codeID": "MUd",
                    "description": "Drained Poisson's ratio",
                    "isProjectSpecific": false
                },
                {
                    "codeID": "ELEV",
                    "description": "Elevation (reduced level)",
                    "units": "mOD",
                    "isProjectSpecific": false
                }
            ]
        }
    ]
}