<?xml version="1.0" encoding="UTF-8" standalone="no"?>
<svg
   xmlns:dc="http://purl.org/dc/elements/1.1/"
   xmlns:cc="http://creativecommons.org/ns#"
   xmlns:rdf="http://www.w3.org/1999/02/22-rdf-syntax-ns#"
   xmlns:svg="http://www.w3.org/2000/svg"
   xmlns="http://www.w3.org/2000/svg"
   xmlns:sodipodi="http://sodipodi.sourceforge.net/DTD/sodipodi-0.dtd"
   xmlns:inkscape="http://www.inkscape.org/namespaces/inkscape"
   width="196.54761mm"
   height="119.81845mm"
   viewBox="0 0 196.54761 119.81845"
   version="1.1"
   id="svg8"
   inkscape:version="1.0.1 (3bc2e813f5, 2020-09-07)"
   sodipodi:docname="Geometry_Rules_VolFromSurfaces_Top.svg">
  <defs
     id="defs2">
    <marker
       style="overflow:visible"
       id="Arrow1Lend"
       refX="0"
       refY="0"
       orient="auto"
       inkscape:stockid="Arrow1Lend"
       inkscape:isstock="true">
      <path
         transform="matrix(-0.8,0,0,-0.8,-10,0)"
         style="fill:#000000;fill-opacity:1;fill-rule:evenodd;stroke:#000000;stroke-width:1pt;stroke-opacity:1"
         d="M 0,0 5,-5 -12.5,0 5,5 Z"
         id="path977" />
    </marker>
    <filter
       inkscape:collect="always"
       style="color-interpolation-filters:sRGB"
       id="filter35"
       x="-0.21904533"
       width="1.4380906"
       y="-0.83511037"
       height="2.6702206">
      <feGaussianBlur
         inkscape:collect="always"
         stdDeviation="12.626072"
         id="feGaussianBlur37" />
    </filter>
    <filter
       inkscape:collect="always"
       style="color-interpolation-filters:sRGB"
       id="filter878"
       x="-1.9282445e-05"
       width="1.0000386"
       y="-6.7540095e-05"
       height="1.0001351">
      <feGaussianBlur
         inkscape:collect="always"
         stdDeviation="0.00099454984"
         id="feGaussianBlur880" />
    </filter>
    <filter
       inkscape:collect="always"
       style="color-interpolation-filters:sRGB"
       id="filter878-3"
       x="-1.9282445e-05"
       width="1.0000386"
       y="-6.7540095e-05"
       height="1.0001351">
      <feGaussianBlur
         inkscape:collect="always"
         stdDeviation="0.00099454984"
         id="feGaussianBlur880-4" />
    </filter>
    <filter
       inkscape:collect="always"
       style="color-interpolation-filters:sRGB"
       id="filter1298"
       x="-7.5647922e-06"
       width="1.0000151"
       y="-1.8870114e-05"
       height="1.0000377">
      <feGaussianBlur
         inkscape:collect="always"
         stdDeviation="0.00060615229"
         id="feGaussianBlur1300" />
    </filter>
    <filter
       inkscape:collect="always"
       style="color-interpolation-filters:sRGB"
       id="filter1298-8"
       x="-7.5647922e-06"
       width="1.0000151"
       y="-1.8870114e-05"
       height="1.0000377">
      <feGaussianBlur
         inkscape:collect="always"
         stdDeviation="0.00060615229"
         id="feGaussianBlur1300-5" />
    </filter>
    <filter
       inkscape:collect="always"
       style="color-interpolation-filters:sRGB"
       id="filter1298-8-9"
       x="-7.5647922e-06"
       width="1.0000151"
       y="-1.8870114e-05"
       height="1.0000377">
      <feGaussianBlur
         inkscape:collect="always"
         stdDeviation="0.00060615229"
         id="feGaussianBlur1300-5-0" />
    </filter>
    <filter
       inkscape:collect="always"
       style="color-interpolation-filters:sRGB"
       id="filter1298-8-9-4"
       x="-7.5647922e-06"
       width="1.0000151"
       y="-1.8870114e-05"
       height="1.0000377">
      <feGaussianBlur
         inkscape:collect="always"
         stdDeviation="0.00060615229"
         id="feGaussianBlur1300-5-0-1" />
    </filter>
  </defs>
  <sodipodi:namedview
     id="base"
     pagecolor="#ffffff"
     bordercolor="#666666"
     borderopacity="1.0"
     inkscape:pageopacity="0.0"
     inkscape:pageshadow="2"
     inkscape:zoom="0.49497475"
     inkscape:cx="384.73805"
     inkscape:cy="261.29914"
     inkscape:document-units="mm"
     inkscape:current-layer="layer4"
     inkscape:document-rotation="0"
     showgrid="false"
     inkscape:window-width="1920"
     inkscape:window-height="1001"
     inkscape:window-x="-9"
     inkscape:window-y="-9"
     inkscape:window-maximized="1" />
  <metadata
     id="metadata5">
    <rdf:RDF>
      <cc:Work
         rdf:about="">
        <dc:format>image/svg+xml</dc:format>
        <dc:type
           rdf:resource="http://purl.org/dc/dcmitype/StillImage" />
        <dc:title />
      </cc:Work>
    </rdf:RDF>
  </metadata>
  <g
     inkscape:groupmode="layer"
     id="layer2"
     inkscape:label="Units"
     style="display:inline;filter:url(#filter878)"
     transform="translate(-5.2916665,-74.083336)">
    <path
       style="fill:#5599ff;fill-opacity:1;stroke:none;stroke-width:0.264583px;stroke-linecap:butt;stroke-linejoin:miter;stroke-opacity:1"
       d="m 36.595462,116.41666 v 54.99554 l 147.289958,0.18899 V 152.89137 L 80.697916,137.96131 59.909225,117.73958 Z"
       id="path882" />
    <path
       style="display:inline;fill:#ff8080;stroke:none;stroke-width:0.264583px;stroke-linecap:butt;stroke-linejoin:miter;stroke-opacity:1"
       d="m 59.909225,117.73958 20.788691,20.22173 103.187504,14.93006 -0.189,-29.67114 -123.787195,-5.48065"
       id="path884" />
    <path
       style="fill:#bcd35f;stroke:none;stroke-width:0.264583px;stroke-linecap:butt;stroke-linejoin:miter;stroke-opacity:1"
       d="m 14.699824,97.553377 v 73.766383 h 21.916101 l -0.02045,-54.9031 23.313763,1.32292 101.788832,4.40259 V 98.087914 Z"
       id="path895" />
  </g>
  <g
     inkscape:groupmode="layer"
     id="layer4"
     inkscape:label="Text"
     style="display:inline"
     transform="translate(-5.2916665,-74.083336)">
    <text
       xml:space="preserve"
       style="font-style:normal;font-weight:normal;font-size:21.3333px;line-height:1.25;font-family:sans-serif;display:inline;fill:#000000;fill-opacity:1;stroke:none;stroke-width:0.999999;filter:url(#filter878)"
       x="-1.8541653"
       y="15.614572"
       id="text903-4"
       transform="matrix(0.26458333,0,0,0.26458333,119.77713,130.56124)"><tspan
         sodipodi:role="line"
         id="tspan901-9"
         x="-1.8541653"
         y="15.614572"
         style="font-size:21.3333px;fill:#ff0000;stroke-width:0.999999">Unit 2</tspan></text>
    <text
       xml:space="preserve"
       style="font-style:normal;font-weight:normal;font-size:5.64444px;line-height:1.25;font-family:sans-serif;display:inline;fill:#225500;fill-opacity:1;stroke:none;stroke-width:0.264583;filter:url(#filter878)"
       x="73.327385"
       y="108.66816"
       id="text903"><tspan
         sodipodi:role="line"
         id="tspan901"
         x="73.327385"
         y="108.66816"
         style="font-size:5.64444px;fill:#225500;stroke-width:0.264583">Unit 1</tspan></text>
    <text
       xml:space="preserve"
       style="font-style:normal;font-weight:normal;font-size:5.64444px;line-height:1.25;font-family:sans-serif;display:inline;fill:#000000;fill-opacity:1;stroke:none;stroke-width:0.264583;filter:url(#filter878-3)"
       x="74.685349"
       y="158.5051"
       id="text903-8"><tspan
         sodipodi:role="line"
         id="tspan901-92"
         x="74.685349"
         y="158.5051"
         style="font-size:5.64444px;fill:#0000ff;stroke-width:0.264583">Unit  3</tspan></text>
    <text
       xml:space="preserve"
       style="font-style:normal;font-weight:normal;font-size:4.23333px;line-height:1.25;font-family:sans-serif;text-align:center;text-anchor:middle;fill:#000000;fill-opacity:1;stroke:none;stroke-width:0.264583"
       x="46.217739"
       y="83.120819"
       id="text968"><tspan
         sodipodi:role="line"
         x="46.217739"
         y="83.120819"
         style="font-size:4.23333px;text-align:center;text-anchor:middle;stroke-width:0.264583"
         id="tspan1275">Top surfaces of unit 2 </tspan><tspan
         sodipodi:role="line"
         x="46.217739"
         y="88.412483"
         style="font-size:4.23333px;text-align:center;text-anchor:middle;stroke-width:0.264583"
         id="tspan1279">and 3 coincident here</tspan></text>
    <path
       style="fill:none;stroke:#000000;stroke-width:0.22;stroke-linecap:butt;stroke-linejoin:miter;stroke-miterlimit:4;stroke-dasharray:none;stroke-opacity:1;marker-end:url(#Arrow1Lend)"
       d="m 47.70761,90.604368 1.603616,26.326052"
       id="path972" />
    <text
       xml:space="preserve"
       style="font-style:normal;font-weight:normal;font-size:4.23333px;line-height:1.25;font-family:sans-serif;text-align:center;text-anchor:middle;display:inline;fill:#225500;fill-opacity:1;stroke:none;stroke-width:0.264583"
       x="135.76945"
       y="93.410072"
       id="text968-1"><tspan
         sodipodi:role="line"
         x="135.76945"
         y="93.410072"
         style="font-size:4.23333px;text-align:center;text-anchor:middle;fill:#225500;stroke-width:0.264583"
         id="tspan970-2">Top of unit 1</tspan></text>
    <path
       sodipodi:type="star"
       style="display:inline;fill:#225500;fill-opacity:1;stroke:none;stroke-width:0.22;stroke-miterlimit:4;stroke-dasharray:none;stroke-opacity:1;filter:url(#filter1298)"
       id="path1292"
       sodipodi:sides="3"
       sodipodi:cx="127.2203"
       sodipodi:cy="91.406181"
       sodipodi:r1="2.3642404"
       sodipodi:r2="1.1821202"
       sodipodi:arg1="2.3961732"
       sodipodi:arg2="3.4433707"
       inkscape:flatsided="true"
       inkscape:rounded="0"
       inkscape:randomized="0"
       d="m 125.48305,93.009799 1.2171,-3.909931 2.77755,3.009009 z"
       inkscape:transform-center-x="-0.0052158621"
       inkscape:transform-center-y="0.58653558"
       transform="rotate(72.962198,134.01727,106.64666)" />
    <text
       xml:space="preserve"
       style="font-style:normal;font-weight:normal;font-size:4.23333px;line-height:1.25;font-family:sans-serif;text-align:center;text-anchor:middle;display:inline;fill:#ff0000;fill-opacity:1;stroke:none;stroke-width:0.264583"
       x="132.34216"
       y="116.76676"
       id="text968-1-6"><tspan
         sodipodi:role="line"
         x="132.34216"
         y="116.76676"
         style="font-size:4.23333px;text-align:center;text-anchor:middle;fill:#ff0000;stroke-width:0.264583"
         id="tspan970-2-0">Top of unit 2</tspan></text>
    <path
       sodipodi:type="star"
       style="display:inline;fill:#ff0000;fill-opacity:1;stroke:none;stroke-width:0.22;stroke-miterlimit:4;stroke-dasharray:none;stroke-opacity:1;filter:url(#filter1298-8)"
       id="path1292-3"
       sodipodi:sides="3"
       sodipodi:cx="127.2203"
       sodipodi:cy="91.406181"
       sodipodi:r1="2.3642404"
       sodipodi:r2="1.1821202"
       sodipodi:arg1="2.3961732"
       sodipodi:arg2="3.4433707"
       inkscape:flatsided="true"
       inkscape:rounded="0"
       inkscape:randomized="0"
       d="m 125.48305,93.009799 1.2171,-3.909931 2.77755,3.009009 z"
       inkscape:transform-center-x="-0.0052158621"
       inkscape:transform-center-y="0.58653558"
       transform="rotate(72.962198,116.51035,116.00755)" />
    <text
       xml:space="preserve"
       style="font-style:normal;font-weight:normal;font-size:4.23333px;line-height:1.25;font-family:sans-serif;text-align:center;text-anchor:middle;display:inline;fill:#0000ff;fill-opacity:1;stroke:none;stroke-width:0.264583"
       x="161.74182"
       y="143.4269"
       id="text968-1-6-1"><tspan
         sodipodi:role="line"
         x="161.74182"
         y="143.4269"
         style="font-size:4.23333px;text-align:center;text-anchor:middle;fill:#0000ff;stroke-width:0.264583"
         id="tspan970-2-0-2">Top of unit 3</tspan></text>
    <path
       sodipodi:type="star"
       style="display:inline;fill:#0000ff;fill-opacity:1;stroke:none;stroke-width:0.22;stroke-miterlimit:4;stroke-dasharray:none;stroke-opacity:1;filter:url(#filter1298-8-9)"
       id="path1292-3-7"
       sodipodi:sides="3"
       sodipodi:cx="127.2203"
       sodipodi:cy="91.406181"
       sodipodi:r1="2.3642404"
       sodipodi:r2="1.1821202"
       sodipodi:arg1="2.3961732"
       sodipodi:arg2="3.4433707"
       inkscape:flatsided="true"
       inkscape:rounded="0"
       inkscape:randomized="0"
       d="m 125.48305,93.009799 1.2171,-3.909931 2.77755,3.009009 z"
       inkscape:transform-center-x="-0.0052158621"
       inkscape:transform-center-y="0.58653558"
       transform="rotate(72.962198,102.99163,135.71792)" />
    <text
       xml:space="preserve"
       style="font-style:normal;font-weight:normal;font-size:4.23333px;line-height:1.25;font-family:sans-serif;text-align:center;text-anchor:middle;display:inline;fill:#000000;fill-opacity:1;stroke:none;stroke-width:0.264583"
       x="104.10336"
       y="179.04628"
       id="text968-7"><tspan
         sodipodi:role="line"
         x="104.10336"
         y="179.04628"
         style="font-size:4.23333px;text-align:center;text-anchor:middle;stroke-width:0.264583"
         id="tspan1279-6">Model bottom boundary</tspan></text>
    <path
       sodipodi:type="star"
       style="display:inline;fill:#000000;fill-opacity:1;stroke:none;stroke-width:0.22;stroke-miterlimit:4;stroke-dasharray:none;stroke-opacity:1;filter:url(#filter1298-8-9-4)"
       id="path1292-3-7-1"
       sodipodi:sides="3"
       sodipodi:cx="127.2203"
       sodipodi:cy="91.406181"
       sodipodi:r1="2.3642404"
       sodipodi:r2="1.1821202"
       sodipodi:arg1="2.3961732"
       sodipodi:arg2="3.4433707"
       inkscape:flatsided="true"
       inkscape:rounded="0"
       inkscape:randomized="0"
       d="m 125.48305,93.009799 1.2171,-3.909931 2.77755,3.009009 z"
       inkscape:transform-center-x="0.0052113861"
       inkscape:transform-center-y="-0.58654091"
       transform="rotate(-107.0378,146.96674,140.59665)" />
  </g>
  <g
     inkscape:label="Surfaces"
     inkscape:groupmode="layer"
     id="layer1"
     style="display:inline;filter:url(#filter1298)"
     transform="translate(-5.2916665,-74.083336)">
    <path
       style="fill:none;stroke:none;stroke-width:0.265;stroke-linecap:butt;stroke-linejoin:miter;stroke-miterlimit:4;stroke-dasharray:none;stroke-opacity:1;filter:url(#filter35)"
       d="m 44.979166,116.98363 14.930059,0.75595 20.788691,20.22173 102.620534,15.30803"
       id="path26" />
    <path
       style="fill:#225500;stroke:#003e00;stroke-width:0.5;stroke-linecap:butt;stroke-linejoin:miter;stroke-miterlimit:4;stroke-dasharray:none;stroke-opacity:1"
       d="M 14.699824,97.553377 161.69807,98.087914"
       id="path893" />
    <path
       style="fill:none;stroke:#0000ff;stroke-width:0.5;stroke-linecap:butt;stroke-linejoin:miter;stroke-miterlimit:4;stroke-dasharray:none;stroke-opacity:1"
       d="m 36.595462,116.41666 23.313763,1.32292 20.788691,20.22173 103.187504,14.93006"
       id="path964" />
    <path
       style="display:inline;fill:none;stroke:#ff0000;stroke-width:0.5;stroke-linecap:butt;stroke-linejoin:miter;stroke-miterlimit:4;stroke-dasharray:none;stroke-opacity:1"
       d="M 183.69642,123.22023 59.909225,117.73958 36.595462,116.41666"
       id="path897" />
  </g>
  <path
     style="fill:none;stroke:#000000;stroke-width:0.5;stroke-linecap:butt;stroke-linejoin:miter;stroke-miterlimit:4;stroke-dasharray:none;stroke-opacity:1"
     d="M 9.4081575,97.236424 178.59375,97.517854"
     id="path1424" />
</svg>
